module gitlab.com/teterski-softworks/godbot

go 1.18

require (
	github.com/bwmarrin/discordgo v0.25.0
	github.com/mattn/go-sqlite3 v1.14.13
	github.com/pkg/errors v0.9.1
)

require (
	github.com/gorilla/websocket v1.4.2 // indirect
	golang.org/x/crypto v0.0.0-20210421170649-83a5a9bb288b // indirect
	golang.org/x/sys v0.0.0-20201119102817-f84b799fce68 // indirect
)
